We R the World!!
…
## Data (c) OpenStreetMap contributors, ODbL 1.0. http://www.openstreetmap.org/copyright

#library(leaflet) 
#library(threejs) 
library(sf)

## Linking to GEOS 3.9.1, GDAL 3.4.3, PROJ 7.2.1; sf_use_s2() is TRUE

Graph 1

pura <- read_csv("pura.csv")

pura

## # A tibble: 180 × 9
##       o. NAME  `SUB DISTRICT` DISTRICT       STATE          LEVEL   `2001CensusCODE`  LAT.  LNG.
##    <dbl> <chr> <chr>          <chr>          <chr>          <chr>              <dbl> <dbl> <dbl>
##  1     1 Pur   Akbarpur       Kanpur Dehat   Uttar Pradesh  <NA>             9.33e14  26.4  79.9
##  2     2 Pur   Sikanderpur    Ballia         Uttar Pradesh  <NA>             9.63e14  26.0  84.0
##  3     3 Pur   Orai           Jalaun         Uttar Pradesh  <NA>             9.35e14  25.9  79.3
##  4     4 Pur   Bawani Khera   Bhiwani        Haryana        Village          6.13e14  28.9  76.1
##  5     5 Pur   Khanapur       Belgaum        Karnataka      Village          2.9 e15  15.4  74.7
##  6     6 Pur   Mundgod        Uttara Kannada Karnataka      Village          2.91e15  15.0  75.0
##  7     7 Pur   Bhind          Bhind          Madhya Pradesh Village          2.3 e15  26.6  78.7
##  8     8 Pur   Nowgong        Chhatarpur     Madhya Pradesh Village          2.31e15  25.0  79.8
##  9     9 Pur   Mangrulpir     Washim         Maharashtra    Village          2.71e15  20.4  77.2
## 10    10 Pur   Junnar         Pune           Maharashtra    Village          2.73e15  19.2  73.7
## # … with 170 more rows
…
karate %>% as_tbl_graph() %>% activate(edges) %>% as_tibble

## # A tibble: 78 × 3
##     from    to weight
##    <int> <int>  <dbl>
##  1     1     2      4
##  2     1     3      5
##  3     1     4      3
##  4     1     5      3
##  5     1     6      3
##  6     1     7      3
##  7     1     8      2
##  8     1     9      2
##  9     1    11      2
## 10     1    12      3
## # … with 68 more rows

karate %>% as_tbl_graph() %>% activate(nodes) %>% as_tibble

## # A tibble: 34 × 4
##    Faction name     label color
##      <dbl> <chr>    <chr> <dbl>
##  1       1 Mr Hi    H         1
##  2       1 Actor 2  2         1
##  3       1 Actor 3  3         1
##  4       1 Actor 4  4         1
##  5       1 Actor 5  5         1
##  6       1 Actor 6  6         1
##  7       1 Actor 7  7         1
##  8       1 Actor 8  8         1
##  9       2 Actor 9  9         2
## 10       2 Actor 10 10        2
## # … with 24 more rows
…
diamonds %>% dim()

## [1] 53940    10

diamonds %>% count(carat)

## # A tibble: 273 × 2
##    carat     n
##    <dbl> <int>
##  1  0.2     12
##  2  0.21     9
##  3  0.22     5
##  4  0.23   293
##  5  0.24   254
##  6  0.25   212
##  7  0.26   253
##  8  0.27   233
##  9  0.28   198
## 10  0.29   130
## # … with 263 more rows
…
## # A tibble: 8 × 2
##   clarity     n
##   <ord>   <int>
## 1 I1        741
## 2 SI2      9194
## 3 SI1     13065
## 4 VS2     12258
## 5 VS1      8171
## 6 VVS2     5066
## 7 VVS1     3655
## 8 IF       1790

diamonds %>% count(depth)

## # A tibble: 184 × 2
##    depth     n
##    <dbl> <int>
##  1  43       2
##  2  44       1
##  3  50.8     1
##  4  51       1
##  5  52.2     1
##  6  52.3     1
##  7  52.7     1
##  8  53       1
##  9  53.1     1
## 10  53.2     2
## # … with 174 more rows

diamonds %>% count(table)

## # A tibble: 127 × 2
##    table     n
##    <dbl> <int>
##  1  43       1
##  2  44       1
##  3  49       2
##  4  50       2
##  5  50.1     1
##  6  51       9
##  7  51.6     1
##  8  52      56
##  9  52.4     1
## 10  52.8     2
## # … with 117 more rows

diamonds %>% count(price)

## # A tibble: 11,602 × 2
##    price     n
##    <int> <int>
##  1   326     2
##  2   327     1
##  3   334     1
##  4   335     1
##  5   336     2
##  6   337     2
##  7   338     1
##  8   339     1
##  9   340     1
## 10   342     1
## # … with 11,592 more rows
…
