…
##  1 Jake Peralta   M     Detective         
##  2 Amy Santiago   F     Detective         
##  3 Charles Boyle  M     Detective         
##  4 Terry Jeffords M     Sergeant          
##  5 Rosa Diaz      F     Detective         
##  6 Captain Holt   M     Captain           
##  7 Stranger 1     M     Unemployed        
##  8 Stranger 2     M     Horseblood Seller 
##  9 Stranger 3     M     Retired           
## 10 Stranger 4     M     Unemployed        
## 11 Ratko          M     Butcher           
## 12 Gina Linetti   F     Personal Assistant
## 13 Stranger       M     Shop Owner

## # A tibble: 66 × 5
##    names_from     names_to     duration relation  topic       
##    <chr>          <chr>           <dbl> <chr>     <chr>       
##  1 Jake Peralta   Jake Peralta       16 N.A       Introduction
##  2 Amy Santiago   Jake Peralta       13 Friends   Bantering   
##  3 Amy Santiago   Stranger 1         16 Strangers Interogation
##  4 Jake Peralta   Amy Santiago       48 Friends   Insulting   
##  5 Jake Peralta   Amy Santiago       22 Friends   Insulting   
##  6 Terry Jeffords Jake Peralta       20 Friends   Work        
##  7 Rosa Diaz      Jake Peralta        2 Friends   Work        
##  8 Charles Boyle  Jake Peralta        3 Friends   Work        
##  9 Terry Jeffords Jake Peralta        5 Friends   Work        
## 10 Charles Boyle  Gina Linetti       44 Friends   Insulting   
## # … with 56 more rows
…
